{
  "forge_marker": 1,
  "variants": {
    "age=0": { "model": "rc:canola_stage0" },
    "age=1": { "model": "rc:canola_stage1" },
    "age=2": { "model": "rc:canola_stage2" },
    "age=3": { "model": "rc:canola_stage3" },
    "age=4": { "model": "rc:canola_stage4" },
    "age=5": { "model": "rc:canola_stage5" },
    "age=6": { "model": "rc:canola_stage6" },
    "age=7": { "model": "rc:canola_stage7" },
    "age=8": { "model": "rc:canola_stage8" },
    "age=9": { "model": "rc:canola_stage9" },


    "inventory": {"model": "rc:canola"}
  }
}
