{
  "background": "rc:textures/gui/book/bookb.png",
  "title": "轴箱",
  "subtitle": [
    "item:rc:blockaxls,0,0,-2,2.0F",
    "str:轴箱可以传导能量,0,40,0,1.0F"
  ],
  "body": [
    "轴箱分为三个等级,每个等级所能承受的扭矩和转速均不同",
    "超过承受能力将会损坏",
    "",
    "基础(HSLA) : 最大 T:512 S:2048",
    "高级(钻石) : 最大 T:8192 S:16384",
    "终极(基岩) : 无限"
  ]
}