{
  "background": "rc:textures/gui/book/bookb.png",
  "title": "液泵",
  "subtitle": [
    "item:rc:blockpump,0,0,-2,2.0F",
    "str:抽取世界内的流体,0,40,0,1.0F"
  ],
  "body": [
    "功率需求：4096 KW  16Nm",
    "",
    "范围：下方矩阵 max( Torque / 16,4)",
    "抽取水时不会消耗世界内的水",
    "抽取其他液体时将目标设置为[透明框架]"
  ]
}