{
    "__comment": "Model generated using MrCrayfish's Model Creator (https://mrcrayfish.com/tools?id=mc)",
    "textures": {
        "hsla": "rc:blocks/axls/hsla",
        "gearbox_bottom": "rc:blocks/gearbox_bottom"
    },
    "display": {
        "gui": {
            "rotation": [ 30, 45, 0 ],
            "translation": [ 0, 0, 0 ],
            "scale": [ 0.625, 0.625, 0.625 ]
        },
        "ground": {
            "rotation": [ 0, 0, 0 ],
            "translation": [ 0, 3, 0 ],
            "scale": [ 0.25, 0.25, 0.25 ]
        },
        "fixed": {
            "rotation": [ 0, 180, 0 ],
            "translation": [ 0, 0, 0 ],
            "scale": [ 1, 1, 1 ]
        },
        "head": {
            "rotation": [ 0, 180, 0 ],
            "translation": [ 0, 0, 0 ],
            "scale": [ 1, 1, 1 ]
        },
        "firstperson_righthand": {
            "rotation": [ 0, 315, 0 ],
            "translation": [ 0, 2.5, 0 ],
            "scale": [ 0.4, 0.4, 0.4 ]
        },
        "thirdperson_righthand": {
            "rotation": [ 75, 315, 0 ],
            "translation": [ 0, 2.5, 0 ],
            "scale": [ 0.375, 0.375, 0.375 ]
        }
    },
    "elements": [
        {
            "name": "inputside",
            "from": [ 1, 1, 0 ], 
            "to": [ 15, 15, 1 ], 
            "shade": false,
            "faces": {
                "north": { "texture": "#gearbox_bottom", "uv": [ 1, 1, 15, 15 ] },
                "south": { "texture": "#gearbox_bottom", "uv": [ 1, 1, 15, 15 ] }
            }
        },
        {
            "name": "stick0",
            "from": [ 0, 0, 15 ], 
            "to": [ 1, 16, 16 ], 
            "shade": false,
            "faces": {
                "north": { "texture": "#gearbox_bottom", "uv": [ 0, 0, 1, 16 ] },
                "east": { "texture": "#gearbox_bottom", "uv": [ 0, 0, 1, 16 ] },
                "south": { "texture": "#gearbox_bottom", "uv": [ 0, 0, 1, 16 ] },
                "west": { "texture": "#gearbox_bottom", "uv": [ 0, 0, 1, 16 ] }
            }
        },
        {
            "name": "stick1",
            "from": [ 15, 0, 15 ], 
            "to": [ 16, 15, 16 ], 
            "shade": false,
            "faces": {
                "north": { "texture": "#gearbox_bottom", "uv": [ 0, 0, 1, 15 ] },
                "east": { "texture": "#gearbox_bottom", "uv": [ 0, 0, 1, 15 ] },
                "south": { "texture": "#gearbox_bottom", "uv": [ 0, 0, 1, 15 ] },
                "west": { "texture": "#gearbox_bottom", "uv": [ 0, 0, 1, 15 ] }
            }
        },
        {
            "name": "stick2",
            "from": [ 15, 0, 0 ], 
            "to": [ 16, 1, 16 ], 
            "shade": false,
            "faces": {
                "north": { "texture": "#gearbox_bottom", "uv": [ 0, 0, 1, 1 ] },
                "east": { "texture": "#gearbox_bottom", "uv": [ 0, 0, 16, 1 ] },
                "west": { "texture": "#gearbox_bottom", "uv": [ 0, 0, 16, 1 ] },
                "up": { "texture": "#gearbox_bottom", "uv": [ 0, 0, 1, 16 ] },
                "down": { "texture": "#gearbox_bottom", "uv": [ 0, 0, 1, 16 ] }
            }
        },
        {
            "name": "stick3",
            "from": [ 0, 0, 0 ], 
            "to": [ 1, 1, 15 ], 
            "shade": false,
            "faces": {
                "north": { "texture": "#gearbox_bottom", "uv": [ 0, 0, 1, 1 ] },
                "east": { "texture": "#gearbox_bottom", "uv": [ 0, 0, 15, 1 ] },
                "west": { "texture": "#gearbox_bottom", "uv": [ 1, 0, 16, 1 ] },
                "up": { "texture": "#gearbox_bottom", "uv": [ 0, 0, 1, 15 ] },
                "down": { "texture": "#gearbox_bottom", "uv": [ 0, 0, 1, 15 ] }
            }
        },
        {
            "name": "stick4",
            "from": [ 0, 0, 15 ], 
            "to": [ 16, 1, 16 ], 
            "shade": false,
            "faces": {
                "north": { "texture": "#gearbox_bottom", "uv": [ 0, 0, 16, 1 ] },
                "south": { "texture": "#gearbox_bottom", "uv": [ 0, 0, 16, 1 ] },
                "up": { "texture": "#gearbox_bottom", "uv": [ 0, 0, 16, 1 ] },
                "down": { "texture": "#gearbox_bottom", "uv": [ 0, 0, 16, 1 ] }
            }
        },
        {
            "name": "stick5",
            "from": [ 0, 15, 0 ], 
            "to": [ 1, 16, 16 ], 
            "shade": false,
            "faces": {
                "east": { "texture": "#gearbox_bottom", "uv": [ 0, 0, 16, 1 ] },
                "west": { "texture": "#gearbox_bottom", "uv": [ 0, 0, 16, 1 ] },
                "up": { "texture": "#gearbox_bottom", "uv": [ 0, 0, 1, 16 ] },
                "down": { "texture": "#gearbox_bottom", "uv": [ 0, 0, 1, 16 ] }
            }
        },
        {
            "name": "stick6",
            "from": [ 15, 15, 0 ], 
            "to": [ 16, 16, 16 ], 
            "shade": false,
            "faces": {
                "east": { "texture": "#gearbox_bottom", "uv": [ 0, 0, 16, 1 ] },
                "west": { "texture": "#gearbox_bottom", "uv": [ 0, 0, 16, 1 ] },
                "up": { "texture": "#gearbox_bottom", "uv": [ 0, 0, 1, 16 ] },
                "down": { "texture": "#gearbox_bottom", "uv": [ 0, 0, 1, 16 ] }
            }
        },
        {
            "name": "stick7",
            "from": [ 0, 15, 15 ], 
            "to": [ 16, 16, 16 ], 
            "shade": false,
            "faces": {
                "north": { "texture": "#gearbox_bottom", "uv": [ 0, 0, 16, 1 ] },
                "south": { "texture": "#gearbox_bottom", "uv": [ 0, 0, 16, 1 ] },
                "up": { "texture": "#gearbox_bottom", "uv": [ 0, 0, 16, 1 ] },
                "down": { "texture": "#gearbox_bottom", "uv": [ 0, 0, 16, 1 ] }
            }
        },
        {
            "name": "stick8",
            "from": [ 0, 15, 0 ], 
            "to": [ 16, 16, 1 ], 
            "shade": false,
            "faces": {
                "north": { "texture": "#gearbox_bottom", "uv": [ 0, 0, 16, 1 ] },
                "south": { "texture": "#gearbox_bottom", "uv": [ 0, 0, 16, 1 ] },
                "up": { "texture": "#gearbox_bottom", "uv": [ 0, 0, 16, 1 ] },
                "down": { "texture": "#gearbox_bottom", "uv": [ 0, 0, 16, 1 ] }
            }
        },
        {
            "name": "stick9",
            "from": [ 1, 0, 0 ], 
            "to": [ 15, 1, 1 ], 
            "shade": false,
            "faces": {
                "north": { "texture": "#gearbox_bottom", "uv": [ 0, 0, 14, 1 ] },
                "south": { "texture": "#gearbox_bottom", "uv": [ 0, 0, 14, 1 ] },
                "down": { "texture": "#gearbox_bottom", "uv": [ 0, 0, 14, 1 ] }
            }
        },
        {
            "name": "stick10",
            "from": [ 15, 1, 0 ], 
            "to": [ 16, 15, 1 ], 
            "shade": false,
            "faces": {
                "north": { "texture": "#gearbox_bottom", "uv": [ 0, 0, 1, 14 ] },
                "east": { "texture": "#gearbox_bottom", "uv": [ 0, 0, 1, 14 ] },
                "south": { "texture": "#gearbox_bottom", "uv": [ 0, 0, 1, 14 ] }
            }
        },
        {
            "name": "stick11",
            "from": [ 0, 1, 0 ], 
            "to": [ 1, 15, 1 ], 
            "shade": false,
            "faces": {
                "north": { "texture": "#gearbox_bottom", "uv": [ 0, 0, 1, 14 ] },
                "west": { "texture": "#gearbox_bottom", "uv": [ 0, 0, 1, 14 ] }
            }
        },
        {
            "name": "outputside",
            "from": [ 0, 1, 1 ], 
            "to": [ 1, 15, 15 ], 
            "shade": false,
            "faces": {
                "east": { "texture": "#gearbox_bottom", "uv": [ 1, 1, 15, 15 ] },
                "west": { "texture": "#gearbox_bottom", "uv": [ 1, 1, 15, 15 ], "rotation": 180 }
            }
        },
        {
            "name": "Cube1",
            "from": [ 7, 7, -1 ], 
            "to": [ 9, 9, 7 ], 
            "faces": {
                "north": { "texture": "#hsla", "uv": [ 0, 0, 2, 2 ] },
                "east": { "texture": "#hsla", "uv": [ 0, 0, 8, 2 ] },
                "south": { "texture": "#hsla", "uv": [ 0, 0, 2, 2 ] },
                "west": { "texture": "#hsla", "uv": [ 0, 0, 8, 2 ] },
                "up": { "texture": "#hsla", "uv": [ 0, 0, 2, 8 ] },
                "down": { "texture": "#hsla", "uv": [ 0, 0, 2, 8 ] }
            }
        },
        {
            "name": "Cube2",
            "from": [ 7, 7, -1 ], 
            "to": [ 9, 9, 7 ], 
            "rotation": { "origin": [ 8, 8, 8 ], "axis": "z", "angle": 45.0 },
            "faces": {
                "north": { "texture": "#hsla", "uv": [ 0, 0, 2, 2 ] },
                "east": { "texture": "#hsla", "uv": [ 0, 0, 8, 2 ] },
                "south": { "texture": "#hsla", "uv": [ 0, 0, 2, 2 ] },
                "west": { "texture": "#hsla", "uv": [ 0, 0, 8, 2 ] },
                "up": { "texture": "#hsla", "uv": [ 0, 0, 2, 8 ] },
                "down": { "texture": "#hsla", "uv": [ 0, 0, 2, 8 ] }
            }
        },
        {
            "name": "Cube3",
            "from": [ 6, 6, 5 ], 
            "to": [ 10, 10, 6 ], 
            "rotation": { "origin": [ 8, 8, 8 ], "axis": "z", "angle": 45.0 },
            "faces": {
                "north": { "texture": "#hsla", "uv": [ 0, 0, 4, 4 ] },
                "east": { "texture": "#hsla", "uv": [ 0, 0, 1, 4 ] },
                "south": { "texture": "#hsla", "uv": [ 0, 0, 4, 4 ] },
                "west": { "texture": "#hsla", "uv": [ 0, 0, 1, 4 ] },
                "up": { "texture": "#hsla", "uv": [ 0, 0, 4, 1 ] },
                "down": { "texture": "#hsla", "uv": [ 0, 0, 4, 1 ] }
            }
        },
        {
            "name": "Cube4",
            "from": [ 6, 6, 5 ], 
            "to": [ 10, 10, 6 ], 
            "faces": {
                "north": { "texture": "#hsla", "uv": [ 0, 0, 4, 4 ] },
                "east": { "texture": "#hsla", "uv": [ 0, 0, 1, 4 ] },
                "south": { "texture": "#hsla", "uv": [ 0, 0, 4, 4 ] },
                "west": { "texture": "#hsla", "uv": [ 0, 0, 1, 4 ] },
                "up": { "texture": "#hsla", "uv": [ 0, 0, 4, 1 ] },
                "down": { "texture": "#hsla", "uv": [ 0, 0, 4, 1 ] }
            }
        },
        {
            "name": "Cube5",
            "from": [ -1, 7, 7 ], 
            "to": [ 7, 9, 9 ], 
            "faces": {
                "north": { "texture": "#hsla", "uv": [ 0, 0, 8, 2 ] },
                "east": { "texture": "#hsla", "uv": [ 0, 0, 2, 2 ] },
                "south": { "texture": "#hsla", "uv": [ 0, 0, 8, 2 ] },
                "west": { "texture": "#hsla", "uv": [ 0, 0, 2, 2 ] },
                "up": { "texture": "#hsla", "uv": [ 0, 0, 8, 2 ] },
                "down": { "texture": "#hsla", "uv": [ 0, 0, 8, 2 ] }
            }
        },
        {
            "name": "Cube6",
            "from": [ -1, 7, 7 ], 
            "to": [ 7, 9, 9 ], 
            "rotation": { "origin": [ 8, 8, 8 ], "axis": "x", "angle": 45.0 },
            "faces": {
                "north": { "texture": "#hsla", "uv": [ 0, 0, 8, 2 ] },
                "east": { "texture": "#hsla", "uv": [ 0, 0, 2, 2 ] },
                "south": { "texture": "#hsla", "uv": [ 0, 0, 8, 2 ] },
                "west": { "texture": "#hsla", "uv": [ 0, 0, 2, 2 ] },
                "up": { "texture": "#hsla", "uv": [ 0, 0, 8, 2 ] },
                "down": { "texture": "#hsla", "uv": [ 0, 0, 8, 2 ] }
            }
        },
        {
            "name": "Cube7",
            "from": [ 5, 6, 6 ], 
            "to": [ 6, 10, 10 ], 
            "rotation": { "origin": [ 8, 8, 8 ], "axis": "x", "angle": 45.0 },
            "faces": {
                "north": { "texture": "#hsla", "uv": [ 0, 0, 1, 4 ] },
                "east": { "texture": "#hsla", "uv": [ 0, 0, 4, 4 ] },
                "south": { "texture": "#hsla", "uv": [ 0, 0, 1, 4 ] },
                "west": { "texture": "#hsla", "uv": [ 0, 0, 4, 4 ] },
                "up": { "texture": "#hsla", "uv": [ 0, 0, 1, 4 ] },
                "down": { "texture": "#hsla", "uv": [ 0, 0, 1, 4 ] }
            }
        },
        {
            "name": "Cube8",
            "from": [ 5, 6, 6 ], 
            "to": [ 6, 10, 10 ], 
            "faces": {
                "north": { "texture": "#hsla", "uv": [ 0, 0, 1, 4 ] },
                "east": { "texture": "#hsla", "uv": [ 0, 0, 4, 4 ] },
                "south": { "texture": "#hsla", "uv": [ 0, 0, 1, 4 ] },
                "west": { "texture": "#hsla", "uv": [ 0, 0, 4, 4 ] },
                "up": { "texture": "#hsla", "uv": [ 0, 0, 1, 4 ] },
                "down": { "texture": "#hsla", "uv": [ 0, 0, 1, 4 ] }
            }
        }
    ]
}