{
  "parent": "block/cube",
  "textures": {
    "south": "rc:blocks/machine/blast_side",
    "east": "rc:blocks/machine/blast_side",
    "west": "rc:blocks/machine/blast_side",
    "up": "blocks/stonebrick",
    "down": "rc:blocks/machine/blast_side",
    "north": "rc:blocks/machine/blast_face"
  }
}