{
	"credit": "Made with Blockbench",
	"textures": {
		"0": "rc:blocks/furnace",
		"particle": "rc:blocks/furnace"
	},
	"elements": [
		{
			"from": [0, 0, 0],
			"to": [1, 16, 16],
			"faces": {
				"north": {"uv": [0, 0, 0.125, 1.6875], "texture": "#0"},
				"east": {"uv": [0, 0, 1.75, 1.75], "texture": "#0"},
				"south": {"uv": [0, 0, 0.0625, 1.75], "texture": "#0"},
				"west": {"uv": [0, 0, 1.75, 1.75], "texture": "#0"},
				"up": {"uv": [0, 0, 0.125, 1.6875], "texture": "#0"},
				"down": {"uv": [0, 0, 0.125, 1.6875], "texture": "#0"}
			}
		},
		{
			"from": [0, 0, 0],
			"to": [16, 16, 1],
			"faces": {
				"north": {"uv": [0, 0, 1.75, 1.75], "texture": "#0"},
				"east": {"uv": [0, 0, 0.0625, 1.75], "texture": "#0"},
				"south": {"uv": [0, 0, 1.75, 1.75], "texture": "#0"},
				"west": {"uv": [0, 0, 0.125, 1.6875], "texture": "#0"},
				"up": {"uv": [0, 0, 0.125, 1.6875], "rotation": 270, "texture": "#0"},
				"down": {"uv": [0, 0, 0.125, 1.6875], "rotation": 90, "texture": "#0"}
			}
		},
		{
			"from": [15, 0, 0],
			"to": [16, 16, 16],
			"rotation": {"angle": 0, "axis": "y", "origin": [15, 0, 0]},
			"faces": {
				"north": {"uv": [0, 0, 0.0625, 1.75], "texture": "#0"},
				"east": {"uv": [0, 0, 1.75, 1.75], "texture": "#0"},
				"south": {"uv": [0, 0, 0.125, 1.6875], "texture": "#0"},
				"west": {"uv": [0, 0, 1.75, 1.75], "texture": "#0"},
				"up": {"uv": [0, 0, 0.125, 1.6875], "rotation": 180, "texture": "#0"},
				"down": {"uv": [0, 0, 0.125, 1.6875], "rotation": 180, "texture": "#0"}
			}
		},
		{
			"from": [0, 0, 0],
			"to": [16, 1, 16],
			"rotation": {"angle": 0, "axis": "z", "origin": [15, 0, 0]},
			"faces": {
				"north": {"uv": [0, 0, 0.0625, 1.75], "rotation": 90, "texture": "#0"},
				"east": {"uv": [0, 0, 0.125, 1.6875], "rotation": 90, "texture": "#0"},
				"south": {"uv": [0, 0, 0.125, 1.6875], "rotation": 270, "texture": "#0"},
				"west": {"uv": [0, 0, 0.125, 1.6875], "rotation": 90, "texture": "#0"},
				"up": {"uv": [0, 0, 1.75, 1.75], "rotation": 270, "texture": "#0"},
				"down": {"uv": [0, 0, 1.75, 1.75], "rotation": 270, "texture": "#0"}
			}
		},
		{
			"from": [0, 0, 15],
			"to": [16, 16, 16],
			"rotation": {"angle": 0, "axis": "x", "origin": [16, 0, 16]},
			"faces": {
				"north": {"uv": [0, 0, 1.75, 1.75], "texture": "#0"},
				"east": {"uv": [0, 0, 0.125, 1.6875], "texture": "#0"},
				"south": {"uv": [0, 0, 1.75, 1.75], "texture": "#0"},
				"west": {"uv": [0, 0, 0.125, 1.6875], "rotation": 180, "texture": "#0"},
				"up": {"uv": [0, 0, 0.0625, 1.75], "rotation": 270, "texture": "#0"},
				"down": {"uv": [0, 0, 0.125, 1.6875], "rotation": 270, "texture": "#0"}
			}
		},
		{
			"from": [1, 0, 1],
			"to": [15, 16, 15],
			"rotation": {"angle": 0, "axis": "z", "origin": [15, 0, 0]},
			"faces": {
				"north": {"uv": [3.625, 0, 4.625, 1], "rotation": 270, "texture": "#0"},
				"east": {"uv": [3.625, 0, 4.625, 1], "rotation": 270, "texture": "#0"},
				"south": {"uv": [3.625, 0, 4.625, 1], "rotation": 270, "texture": "#0"},
				"west": {"uv": [3.625, 0, 4.625, 1], "rotation": 270, "texture": "#0"},
				"up": {"uv": [3.625, 0, 4.625, 1], "rotation": 270, "texture": "#0"},
				"down": {"uv": [3.625, 0, 4.625, 1], "rotation": 270, "texture": "#0"}
			}
		}
	],
	"display": {
		"thirdperson_righthand": {
			"rotation": [75, 45, 0],
			"translation": [0, 2.5, 0],
			"scale": [0.375, 0.375, 0.375]
		},
		"thirdperson_lefthand": {
			"rotation": [75, 45, 0],
			"translation": [0, 2.5, 0],
			"scale": [0.375, 0.375, 0.375]
		},
		"firstperson_righthand": {
			"rotation": [0, 45, 0],
			"scale": [0.4, 0.4, 0.4]
		},
		"firstperson_lefthand": {
			"rotation": [0, 225, 0],
			"scale": [0.4, 0.4, 0.4]
		},
		"ground": {
			"translation": [0, 3, 0],
			"scale": [0.25, 0.25, 0.25]
		},
		"gui": {
			"rotation": [30, 225, 0],
			"scale": [0.625, 0.625, 0.625]
		},
		"fixed": {
			"scale": [0.5, 0.5, 0.5]
		}
	}
}