{
    "__comment": "Model generated using MrCrayfish's Model Creator (https://mrcrayfish.com/tools?id=mc)",
    "textures": {
        "gearbox_side": "rc:blocks/gearbox_side",
        "gearbox_bottom": "rc:blocks/gearbox_bottom",
        "gearbox_face": "rc:blocks/gearbox_face"
    },
    "display": {
        "gui": {
            "rotation": [ 30, 45, 0 ],
            "translation": [ 0, 0, 0 ],
            "scale": [ 0.625, 0.625, 0.625 ]
        },
        "ground": {
            "rotation": [ 0, 0, 0 ],
            "translation": [ 0, 3, 0 ],
            "scale": [ 0.25, 0.25, 0.25 ]
        },
        "fixed": {
            "rotation": [ 0, 180, 0 ],
            "translation": [ 0, 0, 0 ],
            "scale": [ 1, 1, 1 ]
        },
        "head": {
            "rotation": [ 0, 180, 0 ],
            "translation": [ 0, 0, 0 ],
            "scale": [ 1, 1, 1 ]
        },
        "firstperson_righthand": {
            "rotation": [ 0, 315, 0 ],
            "translation": [ 0, 2.5, 0 ],
            "scale": [ 0.4, 0.4, 0.4 ]
        },
        "thirdperson_righthand": {
            "rotation": [ 75, 315, 0 ],
            "translation": [ 0, 2.5, 0 ],
            "scale": [ 0.375, 0.375, 0.375 ]
        }
    },
    "elements": [
        {
            "from": [ 0, 1, 15 ], 
            "to": [ 16, 13, 16 ], 
            "shade": false,
            "faces": {
                "north": { "texture": "#gearbox_face", "uv": [ 0, 2, 16, 14 ] },
                "east": { "texture": "#gearbox_face", "uv": [ 0, 2, 1, 14 ] },
                "south": { "texture": "#gearbox_face", "uv": [ 0, 2, 16, 14 ] },
                "west": { "texture": "#gearbox_face", "uv": [ 0, 2, 1, 14 ] },
                "up": { "texture": "#gearbox_face", "uv": [ 0, 15, 16, 16 ] }
            }
        },
        {
            "from": [ 2, 13, 15 ], 
            "to": [ 14, 15, 16 ], 
            "shade": false,
            "faces": {
                "north": { "texture": "#gearbox_face", "uv": [ 2, 0, 14, 2 ] },
                "east": { "texture": "#gearbox_face", "uv": [ 2, 0, 3, 2 ] },
                "south": { "texture": "#gearbox_face", "uv": [ 2, 0, 14, 2 ] },
                "west": { "texture": "#gearbox_face", "uv": [ 2, 0, 3, 2 ] },
                "up": { "texture": "#gearbox_face", "uv": [ 2, 0, 14, 1 ] }
            }
        },
        {
            "from": [ 0, 1, 0 ], 
            "to": [ 16, 13, 1 ], 
            "shade": false,
            "faces": {
                "north": { "texture": "#gearbox_face", "uv": [ 0, 2, 16, 14 ] },
                "east": { "texture": "#gearbox_face", "uv": [ 0, 2, 1, 14 ] },
                "south": { "texture": "#gearbox_face", "uv": [ 0, 2, 16, 14 ] },
                "west": { "texture": "#gearbox_face", "uv": [ 0, 2, 1, 14 ] },
                "up": { "texture": "#gearbox_face", "uv": [ 0, 15, 16, 16 ] }
            }
        },
        {
            "from": [ 2, 13, 0 ], 
            "to": [ 14, 15, 1 ], 
            "shade": false,
            "faces": {
                "north": { "texture": "#gearbox_face", "uv": [ 2, 0, 14, 2 ] },
                "east": { "texture": "#gearbox_face", "uv": [ 2, 0, 3, 2 ] },
                "south": { "texture": "#gearbox_face", "uv": [ 2, 0, 14, 2 ] },
                "west": { "texture": "#gearbox_face", "uv": [ 2, 0, 3, 2 ] },
                "up": { "texture": "#gearbox_face", "uv": [ 2, 0, 14, 1 ] }
            }
        },
        {
            "from": [ 0, 0, 0 ], 
            "to": [ 16, 1, 16 ], 
            "shade": false,
            "faces": {
                "north": { "texture": "#gearbox_bottom", "uv": [ 0, 0, 16, 1 ] },
                "south": { "texture": "#gearbox_bottom", "uv": [ 0, 0, 16, 1 ] },
                "up": { "texture": "#gearbox_bottom", "uv": [ 0, 0, 16, 16 ] },
                "down": { "texture": "#gearbox_bottom", "uv": [ 0, 0, 16, 16 ] }
            }
        },
        {
            "from": [ 0, 0, 0 ], 
            "to": [ 1, 7, 16 ], 
            "shade": false,
            "faces": {
                "north": { "texture": "#gearbox_side", "uv": [ 0, 9, 1, 16 ] },
                "east": { "texture": "#gearbox_side", "uv": [ 0, 9, 16, 16 ] },
                "south": { "texture": "#gearbox_side", "uv": [ 0, 9, 1, 16 ] },
                "west": { "texture": "#gearbox_side", "uv": [ 0, 9, 16, 16 ] },
                "up": { "texture": "#gearbox_bottom", "uv": [ 0, 0, 1, 16 ] }
            }
        },
        {
            "from": [ 0, 7, 1 ], 
            "to": [ 1, 11, 2 ], 
            "shade": false,
            "faces": {
                "east": { "texture": "#gearbox_side", "uv": [ 0, 6, 1, 10 ] },
                "south": { "texture": "#gearbox_side", "uv": [ 0, 6, 1, 10 ] },
                "west": { "texture": "#gearbox_side", "uv": [ 0, 6, 1, 10 ] },
                "up": { "texture": "#gearbox_side", "uv": [ 0, 9, 1, 10 ] }
            }
        },
        {
            "from": [ 0, 7, 14 ], 
            "to": [ 1, 11, 15 ], 
            "shade": false,
            "faces": {
                "north": { "texture": "#gearbox_side", "uv": [ 0, 6, 1, 10 ] },
                "east": { "texture": "#gearbox_side", "uv": [ 0, 6, 1, 10 ] },
                "west": { "texture": "#gearbox_side", "uv": [ 0, 6, 1, 10 ] },
                "up": { "texture": "#gearbox_side", "uv": [ 0, 9, 1, 10 ] }
            }
        },
        {
            "from": [ 15, 0, 0 ], 
            "to": [ 16, 7, 16 ], 
            "shade": false,
            "faces": {
                "north": { "texture": "#gearbox_side", "uv": [ 0, 9, 1, 16 ] },
                "east": { "texture": "#gearbox_side", "uv": [ 0, 9, 16, 16 ] },
                "south": { "texture": "#gearbox_side", "uv": [ 0, 9, 1, 16 ] },
                "west": { "texture": "#gearbox_side", "uv": [ 0, 9, 16, 16 ] },
                "up": { "texture": "#gearbox_bottom", "uv": [ 0, 0, 1, 16 ] }
            }
        },
        {
            "from": [ 15, 7, 1 ], 
            "to": [ 16, 11, 2 ], 
            "shade": false,
            "faces": {
                "east": { "texture": "#gearbox_side", "uv": [ 0, 6, 1, 10 ] },
                "south": { "texture": "#gearbox_side", "uv": [ 0, 6, 1, 10 ] },
                "west": { "texture": "#gearbox_side", "uv": [ 0, 6, 1, 10 ] },
                "up": { "texture": "#gearbox_side", "uv": [ 0, 9, 1, 10 ] }
            }
        },
        {
            "from": [ 15, 7, 14 ], 
            "to": [ 16, 11, 15 ], 
            "shade": false,
            "faces": {
                "north": { "texture": "#gearbox_side", "uv": [ 0, 6, 1, 10 ] },
                "east": { "texture": "#gearbox_side", "uv": [ 0, 6, 1, 10 ] },
                "west": { "texture": "#gearbox_side", "uv": [ 0, 6, 1, 10 ] },
                "up": { "texture": "#gearbox_side", "uv": [ 0, 9, 1, 10 ] }
            }
        },
        {
            "from": [ 7, 7, -1 ], 
            "to": [ 9, 9, 3 ], 
            "shade": false,
            "faces": {
                "north": { "texture": "#gearbox_alxs", "uv": [ 0, 0, 1, 1 ] },
                "east": { "texture": "#gearbox_alxs", "uv": [ 0, 0, 16, 2 ] },
                "west": { "texture": "#gearbox_alxs", "uv": [ 0, 0, 16, 2 ] },
                "up": { "texture": "#gearbox_alxs", "uv": [ 0, 0, 16, 2 ] },
                "down": { "texture": "#gearbox_alxs", "uv": [ 0, 0, 16, 2 ] }
            }
        },
        {
            "from": [ 7, 7, -1 ], 
            "to": [ 9, 9, 3 ], 
            "shade": false,
            "rotation": { "origin": [ 8, 8, 8 ], "axis": "z", "angle": 45.0 },
            "faces": {
                "north": { "texture": "#gearbox_alxs", "uv": [ 0, 0, 1, 1 ] },
                "east": { "texture": "#gearbox_alxs", "uv": [ 0, 0, 16, 2 ] },
                "south": { "texture": "#gearbox_alxs", "uv": [ 0, 0, 1, 1 ] },
                "west": { "texture": "#gearbox_alxs", "uv": [ 0, 0, 16, 2 ] },
                "up": { "texture": "#gearbox_alxs", "uv": [ 0, 0, 16, 2 ] },
                "down": { "texture": "#gearbox_alxs", "uv": [ 0, 0, 16, 2 ] }
            }
        },
        {
            "from": [ 6, 6, 2 ], 
            "to": [ 10, 10, 3 ], 
            "shade": false,
            "faces": {
                "north": { "texture": "#gearbox_alxs", "uv": [ 0, 0, 1, 1 ] },
                "east": { "texture": "#gearbox_alxs", "uv": [ 0, 0, 16, 2 ] },
                "south": { "texture": "#gearbox_alxs", "uv": [ 0, 0, 1, 1 ] },
                "west": { "texture": "#gearbox_alxs", "uv": [ 0, 0, 16, 2 ] },
                "up": { "texture": "#gearbox_alxs", "uv": [ 0, 0, 16, 2 ] },
                "down": { "texture": "#gearbox_alxs", "uv": [ 0, 0, 16, 2 ] }
            }
        },
        {
            "from": [ 6, 6, 2 ], 
            "to": [ 10, 10, 3 ], 
            "shade": false,
            "rotation": { "origin": [ 8, 8, 8 ], "axis": "z", "angle": 45.0 },
            "faces": {
                "north": { "texture": "#gearbox_alxs", "uv": [ 0, 0, 1, 1 ] },
                "east": { "texture": "#gearbox_alxs", "uv": [ 0, 0, 16, 2 ] },
                "south": { "texture": "#gearbox_alxs", "uv": [ 0, 0, 1, 1 ] },
                "west": { "texture": "#gearbox_alxs", "uv": [ 0, 0, 16, 2 ] },
                "up": { "texture": "#gearbox_alxs", "uv": [ 0, 0, 16, 2 ] },
                "down": { "texture": "#gearbox_alxs", "uv": [ 0, 0, 16, 2 ] }
            }
        },
        {
            "from": [ 7, 7, 13 ], 
            "to": [ 9, 9, 17 ], 
            "shade": false,
            "faces": {
                "east": { "texture": "#gearbox_alxs", "uv": [ 0, 0, 16, 2 ] },
                "south": { "texture": "#gearbox_alxs", "uv": [ 0, 0, 1, 1 ] },
                "west": { "texture": "#gearbox_alxs", "uv": [ 0, 0, 16, 2 ] },
                "up": { "texture": "#gearbox_alxs", "uv": [ 0, 0, 16, 2 ] },
                "down": { "texture": "#gearbox_alxs", "uv": [ 0, 0, 16, 2 ] }
            }
        },
        {
            "from": [ 7, 7, 13 ], 
            "to": [ 9, 9, 17 ], 
            "shade": false,
            "rotation": { "origin": [ 8, 8, 8 ], "axis": "z", "angle": 45.0 },
            "faces": {
                "north": { "texture": "#gearbox_alxs", "uv": [ 0, 0, 1, 1 ] },
                "east": { "texture": "#gearbox_alxs", "uv": [ 0, 0, 16, 2 ] },
                "south": { "texture": "#gearbox_alxs", "uv": [ 0, 0, 1, 1 ] },
                "west": { "texture": "#gearbox_alxs", "uv": [ 0, 0, 16, 2 ] },
                "up": { "texture": "#gearbox_alxs", "uv": [ 0, 0, 16, 2 ] },
                "down": { "texture": "#gearbox_alxs", "uv": [ 0, 0, 16, 2 ] }
            }
        },
        {
            "from": [ 6, 6, 13 ], 
            "to": [ 10, 10, 14 ], 
            "shade": false,
            "faces": {
                "north": { "texture": "#gearbox_alxs", "uv": [ 0, 0, 1, 1 ] },
                "east": { "texture": "#gearbox_alxs", "uv": [ 0, 0, 16, 2 ] },
                "south": { "texture": "#gearbox_alxs", "uv": [ 0, 0, 1, 1 ] },
                "west": { "texture": "#gearbox_alxs", "uv": [ 0, 0, 16, 2 ] },
                "up": { "texture": "#gearbox_alxs", "uv": [ 0, 0, 16, 2 ] },
                "down": { "texture": "#gearbox_alxs", "uv": [ 0, 0, 16, 2 ] }
            }
        },
        {
            "from": [ 6, 6, 13 ], 
            "to": [ 10, 10, 14 ], 
            "shade": false,
            "rotation": { "origin": [ 8, 8, 8 ], "axis": "z", "angle": 45.0 },
            "faces": {
                "north": { "texture": "#gearbox_alxs", "uv": [ 0, 0, 1, 1 ] },
                "east": { "texture": "#gearbox_alxs", "uv": [ 0, 0, 16, 2 ] },
                "south": { "texture": "#gearbox_alxs", "uv": [ 0, 0, 1, 1 ] },
                "west": { "texture": "#gearbox_alxs", "uv": [ 0, 0, 16, 2 ] },
                "up": { "texture": "#gearbox_alxs", "uv": [ 0, 0, 16, 2 ] },
                "down": { "texture": "#gearbox_alxs", "uv": [ 0, 0, 16, 2 ] }
            }
        },
        {
            "from": [ 2, 2, 4 ], 
            "to": [ 6, 9, 6 ], 
            "faces": {
                "north": { "texture": "#gearbox_bottom", "uv": [ 0, 0, 2, 7 ] },
                "east": { "texture": "#gearbox_bottom", "uv": [ 0, 0, 2, 7 ] },
                "south": { "texture": "#gearbox_bottom", "uv": [ 0, 0, 2, 7 ] },
                "west": { "texture": "#gearbox_bottom", "uv": [ 0, 0, 2, 7 ] },
                "up": { "texture": "#gearbox_bottom", "uv": [ 0, 0, 2, 2 ] },
                "down": { "texture": "#gearbox_bottom", "uv": [ 0, 0, 2, 2 ] }
            }
        },
        {
            "from": [ 10, 2, 9 ], 
            "to": [ 14, 10, 11 ], 
            "faces": {
                "north": { "texture": "#gearbox_bottom", "uv": [ 0, 0, 2, 9 ] },
                "east": { "texture": "#gearbox_bottom", "uv": [ 0, 0, 2, 8 ] },
                "south": { "texture": "#gearbox_bottom", "uv": [ 0, 0, 2, 8 ] },
                "west": { "texture": "#gearbox_bottom", "uv": [ 0, 0, 2, 8 ] },
                "up": { "texture": "#gearbox_bottom", "uv": [ 0, 0, 2, 2 ] },
                "down": { "texture": "#gearbox_bottom", "uv": [ 0, 0, 2, 2 ] }
            }
        },
        {
            "from": [ 11, 7, 2 ], 
            "to": [ 13, 9, 14 ], 
            "shade": false,
            "faces": {
                "north": { "texture": "#gearbox_alxs", "uv": [ 0, 0, 1, 1 ] },
                "east": { "texture": "#gearbox_alxs", "uv": [ 0, 0, 16, 2 ] },
                "south": { "texture": "#gearbox_alxs", "uv": [ 0, 0, 1, 1 ] },
                "west": { "texture": "#gearbox_alxs", "uv": [ 0, 0, 16, 2 ] },
                "up": { "texture": "#gearbox_alxs", "uv": [ 0, 0, 16, 2 ] },
                "down": { "texture": "#gearbox_alxs", "uv": [ 0, 0, 16, 2 ] }
            }
        },
        {
            "from": [ 11, 7, 2 ], 
            "to": [ 13, 9, 14 ], 
            "shade": false,
            "rotation": { "origin": [ 12, 8, 8 ], "axis": "z", "angle": 45.0 },
            "faces": {
                "north": { "texture": "#gearbox_alxs", "uv": [ 0, 0, 1, 1 ] },
                "east": { "texture": "#gearbox_alxs", "uv": [ 0, 0, 16, 2 ] },
                "south": { "texture": "#gearbox_alxs", "uv": [ 0, 0, 1, 1 ] },
                "west": { "texture": "#gearbox_alxs", "uv": [ 0, 0, 16, 2 ] },
                "up": { "texture": "#gearbox_alxs", "uv": [ 0, 0, 16, 2 ] },
                "down": { "texture": "#gearbox_alxs", "uv": [ 0, 0, 16, 2 ] }
            }
        },
        {
            "from": [ 10, 6, 3 ], 
            "to": [ 14, 10, 4 ], 
            "shade": false,
            "faces": {
                "north": { "texture": "#gearbox_alxs", "uv": [ 0, 0, 1, 1 ] },
                "east": { "texture": "#gearbox_alxs", "uv": [ 0, 0, 16, 2 ] },
                "south": { "texture": "#gearbox_alxs", "uv": [ 0, 0, 1, 1 ] },
                "west": { "texture": "#gearbox_alxs", "uv": [ 0, 0, 16, 2 ] },
                "up": { "texture": "#gearbox_alxs", "uv": [ 0, 0, 16, 2 ] },
                "down": { "texture": "#gearbox_alxs", "uv": [ 0, 0, 16, 2 ] }
            }
        },
        {
            "from": [ 10, 6, 3 ], 
            "to": [ 14, 10, 4 ], 
            "shade": false,
            "rotation": { "origin": [ 12, 8, 8 ], "axis": "z", "angle": 45.0 },
            "faces": {
                "north": { "texture": "#gearbox_alxs", "uv": [ 0, 0, 1, 1 ] },
                "east": { "texture": "#gearbox_alxs", "uv": [ 0, 0, 16, 2 ] },
                "south": { "texture": "#gearbox_alxs", "uv": [ 0, 0, 1, 1 ] },
                "west": { "texture": "#gearbox_alxs", "uv": [ 0, 0, 16, 2 ] },
                "up": { "texture": "#gearbox_alxs", "uv": [ 0, 0, 16, 2 ] },
                "down": { "texture": "#gearbox_alxs", "uv": [ 0, 0, 16, 2 ] }
            }
        },
        {
            "from": [ 3, 6, 2 ], 
            "to": [ 5, 8, 14 ], 
            "shade": false,
            "faces": {
                "east": { "texture": "#gearbox_alxs", "uv": [ 0, 0, 16, 2 ] },
                "west": { "texture": "#gearbox_alxs", "uv": [ 0, 0, 16, 2 ] },
                "up": { "texture": "#gearbox_alxs", "uv": [ 0, 0, 16, 2 ] },
                "down": { "texture": "#gearbox_alxs", "uv": [ 0, 0, 16, 2 ] }
            }
        },
        {
            "from": [ 3, 6, 2 ], 
            "to": [ 5, 8, 14 ], 
            "shade": false,
            "rotation": { "origin": [ 4, 7, 8 ], "axis": "z", "angle": 45.0 },
            "faces": {
                "north": { "texture": "#gearbox_alxs", "uv": [ 0, 0, 1, 1 ] },
                "east": { "texture": "#gearbox_alxs", "uv": [ 0, 0, 16, 2 ] },
                "south": { "texture": "#gearbox_alxs", "uv": [ 0, 0, 1, 1 ] },
                "west": { "texture": "#gearbox_alxs", "uv": [ 0, 0, 16, 2 ] },
                "up": { "texture": "#gearbox_alxs", "uv": [ 0, 0, 16, 2 ] },
                "down": { "texture": "#gearbox_alxs", "uv": [ 0, 0, 16, 2 ] }
            }
        },
        {
            "from": [ 2, 5, 2 ], 
            "to": [ 6, 9, 3 ], 
            "shade": false,
            "rotation": { "origin": [ 4, 7, 8 ], "axis": "z", "angle": 45.0 },
            "faces": {
                "north": { "texture": "#gearbox_alxs", "uv": [ 0, 0, 1, 1 ] },
                "east": { "texture": "#gearbox_alxs", "uv": [ 0, 0, 16, 2 ] },
                "south": { "texture": "#gearbox_alxs", "uv": [ 0, 0, 1, 1 ] },
                "west": { "texture": "#gearbox_alxs", "uv": [ 0, 0, 16, 2 ] },
                "up": { "texture": "#gearbox_alxs", "uv": [ 0, 0, 16, 2 ] },
                "down": { "texture": "#gearbox_alxs", "uv": [ 0, 0, 16, 2 ] }
            }
        },
        {
            "from": [ 2, 5, 2 ], 
            "to": [ 6, 9, 3 ], 
            "shade": false,
            "faces": {
                "north": { "texture": "#gearbox_alxs", "uv": [ 0, 0, 1, 1 ] },
                "east": { "texture": "#gearbox_alxs", "uv": [ 0, 0, 16, 2 ] },
                "south": { "texture": "#gearbox_alxs", "uv": [ 0, 0, 1, 1 ] },
                "west": { "texture": "#gearbox_alxs", "uv": [ 0, 0, 16, 2 ] },
                "up": { "texture": "#gearbox_alxs", "uv": [ 0, 0, 16, 2 ] },
                "down": { "texture": "#gearbox_alxs", "uv": [ 0, 0, 16, 2 ] }
            }
        },
        {
            "from": [ 2, 5, 13 ], 
            "to": [ 6, 9, 14 ], 
            "shade": false,
            "faces": {
                "north": { "texture": "#gearbox_alxs", "uv": [ 0, 0, 1, 1 ] },
                "east": { "texture": "#gearbox_alxs", "uv": [ 0, 0, 16, 2 ] },
                "south": { "texture": "#gearbox_alxs", "uv": [ 0, 0, 1, 1 ] },
                "west": { "texture": "#gearbox_alxs", "uv": [ 0, 0, 16, 2 ] },
                "up": { "texture": "#gearbox_alxs", "uv": [ 0, 0, 16, 2 ] },
                "down": { "texture": "#gearbox_alxs", "uv": [ 0, 0, 16, 2 ] }
            }
        },
        {
            "from": [ 2, 5, 13 ], 
            "to": [ 6, 9, 14 ], 
            "shade": false,
            "rotation": { "origin": [ 4, 7, 8 ], "axis": "z", "angle": 45.0 },
            "faces": {
                "north": { "texture": "#gearbox_alxs", "uv": [ 0, 0, 1, 1 ] },
                "east": { "texture": "#gearbox_alxs", "uv": [ 0, 0, 16, 2 ] },
                "south": { "texture": "#gearbox_alxs", "uv": [ 0, 0, 1, 1 ] },
                "west": { "texture": "#gearbox_alxs", "uv": [ 0, 0, 16, 2 ] },
                "up": { "texture": "#gearbox_alxs", "uv": [ 0, 0, 16, 2 ] },
                "down": { "texture": "#gearbox_alxs", "uv": [ 0, 0, 16, 2 ] }
            }
        },
        {
            "from": [ 5, 9, 2 ], 
            "to": [ 7, 11, 7 ], 
            "shade": false,
            "faces": {
                "north": { "texture": "#gearbox_alxs", "uv": [ 0, 0, 1, 1 ] },
                "east": { "texture": "#gearbox_alxs", "uv": [ 0, 0, 16, 2 ] },
                "west": { "texture": "#gearbox_alxs", "uv": [ 0, 0, 16, 2 ] },
                "up": { "texture": "#gearbox_alxs", "uv": [ 0, 0, 16, 2 ] },
                "down": { "texture": "#gearbox_alxs", "uv": [ 0, 0, 16, 2 ] }
            }
        },
        {
            "from": [ 5, 9, 2 ], 
            "to": [ 7, 11, 7 ], 
            "shade": false,
            "rotation": { "origin": [ 6, 10, 8 ], "axis": "z", "angle": 45.0 },
            "faces": {
                "north": { "texture": "#gearbox_alxs", "uv": [ 0, 0, 1, 1 ] },
                "east": { "texture": "#gearbox_alxs", "uv": [ 0, 0, 16, 2 ] },
                "south": { "texture": "#gearbox_alxs", "uv": [ 0, 0, 1, 1 ] },
                "west": { "texture": "#gearbox_alxs", "uv": [ 0, 0, 16, 2 ] },
                "up": { "texture": "#gearbox_alxs", "uv": [ 0, 0, 16, 2 ] },
                "down": { "texture": "#gearbox_alxs", "uv": [ 0, 0, 16, 2 ] }
            }
        },
        {
            "from": [ 4, 8, 7 ], 
            "to": [ 8, 12, 8 ], 
            "shade": false,
            "faces": {
                "north": { "texture": "#gearbox_alxs", "uv": [ 0, 0, 1, 1 ] },
                "east": { "texture": "#gearbox_alxs", "uv": [ 0, 0, 16, 2 ] },
                "south": { "texture": "#gearbox_alxs", "uv": [ 0, 0, 1, 1 ] },
                "west": { "texture": "#gearbox_alxs", "uv": [ 0, 0, 16, 2 ] },
                "up": { "texture": "#gearbox_alxs", "uv": [ 0, 0, 16, 2 ] },
                "down": { "texture": "#gearbox_alxs", "uv": [ 0, 0, 16, 2 ] }
            }
        },
        {
            "from": [ 4, 8, 7 ], 
            "to": [ 8, 12, 8 ], 
            "shade": false,
            "rotation": { "origin": [ 6, 10, 8 ], "axis": "z", "angle": 45.0 },
            "faces": {
                "north": { "texture": "#gearbox_alxs", "uv": [ 0, 0, 1, 1 ] },
                "east": { "texture": "#gearbox_alxs", "uv": [ 0, 0, 16, 2 ] },
                "south": { "texture": "#gearbox_alxs", "uv": [ 0, 0, 1, 1 ] },
                "west": { "texture": "#gearbox_alxs", "uv": [ 0, 0, 16, 2 ] },
                "up": { "texture": "#gearbox_alxs", "uv": [ 0, 0, 16, 2 ] },
                "down": { "texture": "#gearbox_alxs", "uv": [ 0, 0, 16, 2 ] }
            }
        },
        {
            "from": [ 4, 8, 3 ], 
            "to": [ 8, 12, 4 ], 
            "shade": false,
            "faces": {
                "north": { "texture": "#gearbox_alxs", "uv": [ 0, 0, 1, 1 ] },
                "east": { "texture": "#gearbox_alxs", "uv": [ 0, 0, 16, 2 ] },
                "south": { "texture": "#gearbox_alxs", "uv": [ 0, 0, 1, 1 ] },
                "west": { "texture": "#gearbox_alxs", "uv": [ 0, 0, 16, 2 ] },
                "up": { "texture": "#gearbox_alxs", "uv": [ 0, 0, 16, 2 ] },
                "down": { "texture": "#gearbox_alxs", "uv": [ 0, 0, 16, 2 ] }
            }
        },
        {
            "from": [ 4, 8, 3 ], 
            "to": [ 8, 12, 4 ], 
            "shade": false,
            "rotation": { "origin": [ 6, 10, 8 ], "axis": "z", "angle": 45.0 },
            "faces": {
                "north": { "texture": "#gearbox_alxs", "uv": [ 0, 0, 1, 1 ] },
                "east": { "texture": "#gearbox_alxs", "uv": [ 0, 0, 16, 2 ] },
                "south": { "texture": "#gearbox_alxs", "uv": [ 0, 0, 1, 1 ] },
                "west": { "texture": "#gearbox_alxs", "uv": [ 0, 0, 16, 2 ] },
                "up": { "texture": "#gearbox_alxs", "uv": [ 0, 0, 16, 2 ] },
                "down": { "texture": "#gearbox_alxs", "uv": [ 0, 0, 16, 2 ] }
            }
        }
    ]
}